% $ biblatex auxiliary file $
% $ biblatex bbl format version 2.9 $
% Do not modify the above lines!
%
% This is an auxiliary file used by the 'biblatex' package.
% This file may safely be deleted. It will be recreated by
% biber as required.
%
\begingroup
\makeatletter
\@ifundefined{ver@biblatex.sty}
  {\@latex@error
     {Missing 'biblatex' package}
     {The bibliography requires the 'biblatex' package.}
      \aftergroup\endinput}
  {}
\endgroup


\refsection{0}
  \datalist[entry]{nty/global//global/global}
    \entry{fahrmeir_2013}{book}{}
      \name{author}{3}{}{%
        {{hash=476d0247462120c31452a2a58cbd6cdc}{%
           family={Fahrmeir},
           familyi={F\bibinitperiod},
           given={Ludwig},
           giveni={L\bibinitperiod}}}%
        {{hash=eda2d58a1b493691fe187a3fe6b03c41}{%
           family={Kneib},
           familyi={K\bibinitperiod},
           given={Thomas},
           giveni={T\bibinitperiod}}}%
        {{hash=2979075266629fa1d790fb7c7f4a940a}{%
           family={Lang},
           familyi={L\bibinitperiod},
           given={Stefan},
           giveni={S\bibinitperiod}}}%
      }
      \list{publisher}{1}{%
        {Springer}%
      }
      \strng{namehash}{48f7e5a5ad0a1d3be534050db312dc6c}
      \strng{fullhash}{48f7e5a5ad0a1d3be534050db312dc6c}
      \strng{bibnamehash}{48f7e5a5ad0a1d3be534050db312dc6c}
      \strng{authorbibnamehash}{48f7e5a5ad0a1d3be534050db312dc6c}
      \strng{authornamehash}{48f7e5a5ad0a1d3be534050db312dc6c}
      \strng{authorfullhash}{48f7e5a5ad0a1d3be534050db312dc6c}
      \field{sortinit}{F}
      \field{sortinithash}{fb0c0faa89eb6abae8213bf60e6799ea}
      \field{labelnamesource}{author}
      \field{labeltitlesource}{title}
      \field{title}{Regression: Models, methods and applications}
      \field{year}{2013}
    \endentry
  \enddatalist
\endrefsection
\endinput

